<?xml version="1.0" encoding="UTF-8" standalone="no"?>
<!-- Created with Inkscape (http://www.inkscape.org/) -->

<svg
   xmlns:dc="http://purl.org/dc/elements/1.1/"
   xmlns:cc="http://creativecommons.org/ns#"
   xmlns:rdf="http://www.w3.org/1999/02/22-rdf-syntax-ns#"
   xmlns:svg="http://www.w3.org/2000/svg"
   xmlns="http://www.w3.org/2000/svg"
   xmlns:sodipodi="http://sodipodi.sourceforge.net/DTD/sodipodi-0.dtd"
   xmlns:inkscape="http://www.inkscape.org/namespaces/inkscape"
   width="210mm"
   height="297mm"
   viewBox="0 0 210 297"
   version="1.1"
   id="svg1394"
   inkscape:version="0.92.3 (2405546, 2018-03-11)"
   sodipodi:docname="other.svg">
  <defs
     id="defs1388" />
  <sodipodi:namedview
     id="base"
     pagecolor="#ffffff"
     bordercolor="#666666"
     borderopacity="1.0"
     inkscape:pageopacity="0.0"
     inkscape:pageshadow="2"
     inkscape:zoom="1.5011719"
     inkscape:cx="244.52726"
     inkscape:cy="346.8332"
     inkscape:document-units="mm"
     inkscape:current-layer="layer1"
     showgrid="false"
     inkscape:window-width="2400"
     inkscape:window-height="1271"
     inkscape:window-x="-9"
     inkscape:window-y="124"
     inkscape:window-maximized="1" />
  <metadata
     id="metadata1391">
    <rdf:RDF>
      <cc:Work
         rdf:about="">
        <dc:format>image/svg+xml</dc:format>
        <dc:type
           rdf:resource="http://purl.org/dc/dcmitype/StillImage" />
        <dc:title></dc:title>
      </cc:Work>
    </rdf:RDF>
  </metadata>
  <g
     inkscape:label="Layer 1"
     inkscape:groupmode="layer"
     id="layer1">
    <circle
       style="opacity:1;fill:none;fill-opacity:1;stroke:#080000;stroke-width:1.41626978;stroke-miterlimit:4;stroke-dasharray:none;stroke-opacity:1"
       id="path1939"
       cx="84.666664"
       cy="212.33333"
       r="4.5835319" />
    <path
       style="opacity:1;fill:#000000;fill-opacity:1;stroke:#080000;stroke-width:1.25712872;stroke-miterlimit:4;stroke-dasharray:none;stroke-opacity:1"
       id="path1951"
       sodipodi:type="arc"
       sodipodi:cx="84.710342"
       sodipodi:cy="212.28966"
       sodipodi:rx="0.32228428"
       sodipodi:ry="0.32228428"
       sodipodi:start="4.771416"
       sodipodi:end="4.7711368"
       sodipodi:open="true"
       d="m 84.729355,211.96793 a 0.32228428,0.32228428 0 0 1 0.302712,0.34072 0.32228428,0.32228428 0 0 1 -0.340692,0.30273 0.32228428,0.32228428 0 0 1 -0.30276,-0.34067 0.32228428,0.32228428 0 0 1 0.34065,-0.30278" />
    <path
       style="opacity:1;fill:#000000;fill-opacity:1;stroke:#080000;stroke-width:1.25712872;stroke-miterlimit:4;stroke-dasharray:none;stroke-opacity:1"
       id="path1951-6"
       sodipodi:type="arc"
       sodipodi:cx="82.442505"
       sodipodi:cy="212.28966"
       sodipodi:rx="0.32228428"
       sodipodi:ry="0.32228428"
       sodipodi:start="4.771416"
       sodipodi:end="4.7711368"
       sodipodi:open="true"
       d="m 82.461517,211.96793 a 0.32228428,0.32228428 0 0 1 0.302712,0.34072 0.32228428,0.32228428 0 0 1 -0.340692,0.30273 0.32228428,0.32228428 0 0 1 -0.302759,-0.34067 0.32228428,0.32228428 0 0 1 0.340649,-0.30278" />
    <path
       style="opacity:1;fill:#000000;fill-opacity:1;stroke:#080000;stroke-width:1.25712872;stroke-miterlimit:4;stroke-dasharray:none;stroke-opacity:1"
       id="path1951-6-7"
       sodipodi:type="arc"
       sodipodi:cx="86.978172"
       sodipodi:cy="212.28966"
       sodipodi:rx="0.32228428"
       sodipodi:ry="0.32228428"
       sodipodi:start="4.771416"
       sodipodi:end="4.7711368"
       sodipodi:open="true"
       d="m 86.997185,211.96793 a 0.32228428,0.32228428 0 0 1 0.302712,0.34072 0.32228428,0.32228428 0 0 1 -0.340692,0.30273 0.32228428,0.32228428 0 0 1 -0.30276,-0.34067 0.32228428,0.32228428 0 0 1 0.34065,-0.30278" />
  </g>
</svg>
